Lab 7: Exploratory Data Analysis
…
10/13/2019

Data Description and Handling Missing Values

The dataset describes various electrical quantities taken from a house in France over a period of 4 years. We have information relating to current, voltage, wattage, and readings based on which rooms of the house are consuming power.

To get an idea of the missing values, we first looked at some summaries:

hpc %>%
  filter(is.na(Voltage)) %>%
  group_by(Date) %>%
  count() %>%
  arrange(desc(n))

## # A tibble: 82 x 2
## # Groups:   Date [82]
##    Date           n
##    <date>     <int>
##  1 2007-04-29  1440
##  2 2009-06-14  1440
##  3 2010-01-13  1440
##  4 2010-08-18  1440
##  5 2010-08-19  1440
##  6 2010-08-20  1440
##  7 2010-08-21  1440
##  8 2010-09-26  1440
##  9 2010-09-27  1440
## 10 2007-04-28  1419
## #  with 72 more rows
…
hpc2 <- hpc %>%
  anti_join(off_all_day, by = "Date")

Then, we looked at the remaining missing values:

outages <- hpc2 %>%
  filter(is.na(Voltage)) %>%
  group_by(Date) %>%
  count() %>%
  arrange(desc(n))
outages

## # A tibble: 73 x 2
## # Groups:   Date [73]
##    Date           n
##    <date>     <int>
##  1 2007-04-28  1419
##  2 2009-06-13  1410
##  3 2010-08-22  1288
##  4 2010-03-20  1208
##  5 2010-09-25  1204
##  6 2010-09-28  1153
##  7 2010-01-14  1142
##  8 2009-08-13   891
##  9 2007-04-30   864
## 10 2010-03-21   819
## #  with 63 more rows
…
