Lab 13: World Indicators
…
Summary Answer

First, we decided to look at the subset of the data containing countries which had at least 10 data points to work with. Then, we calculate the correlation coefficients for each country, and look at the 10 lowest:

at_least_10 <- co2_and_pump %>% group_by(country) %>% count() %>% filter(n>=10)

(cor_by_country <- co2_and_pump %>%
  semi_join(at_least_10) %>%
  group_by(country) %>% 
  nest() %>% 
  mutate(cor = map(data, ~cor(.x$`CO2 Emissions (Tonnes/person)`, .x$`Pump Price ($/L)`))) %>%
  unnest(cor, .drop = TRUE) %>%
   arrange((cor)))

## # A tibble: 109 x 2
##    country           cor
##    <chr>           <dbl>
##  1 Germany        -0.880
##  2 Macedonia, FYR -0.863
##  3 Switzerland    -0.858
##  4 Czech Republic -0.854
##  5 United States  -0.846
##  6 Belgium        -0.840
##  7 Denmark        -0.839
##  8 Ireland        -0.836
##  9 United Kingdom -0.829
## 10 Italy          -0.813
## #  with 99 more rows

Similarly, the 10 highest coefficients:

cor_by_country %>% arrange(desc(cor))

## # A tibble: 109 x 2
##    country      cor
##    <chr>      <dbl>
##  1 China      0.980
##  2 Morocco    0.961
##  3 Bangladesh 0.953
##  4 Russia     0.951
##  5 Uganda     0.938
##  6 Vietnam    0.927
##  7 Turkey     0.916
##  8 Kazakhstan 0.896
##  9 Benin      0.894
## 10 India      0.894
## #  with 99 more rows
…
