Lab 9: Data Science to Solve Problems and Answer Questions, part 2
…
The 10 lowest scoring:

candy3 %>%
  arrange(Score)

## # A tibble: 79 x 2
##    `Candy Type`                                    Score
##    <chr>                                           <dbl>
##  1 Gum from baseball cards                         -1418
##  2 Those odd marshmallow circus peanut things      -1063
##  3 Box'o'Raisins                                   -1062
##  4 Spotted Dick                                    -1012
##  5 Jolly Rancher (bad flavor)                       -963
##  6 Sandwich-sized bags filled with BooBerry Crunch  -940
##  7 Mary Janes                                       -913
##  8 JoyJoy (Mit Iodine!)                             -880
##  9 Peeps                                            -846
## 10 Black Jacks                                      -701
## #  with 69 more rows

The candies receiving the most likes and dislikes follow the above summaries more or less. The candies receiving the most Meh ratings were:

candy2 %>%
  filter(Rating == 0) %>%
  group_by(`Candy Type`) %>%
  summarize(Meh = n()) %>%
  arrange(desc(Meh))

## # A tibble: 79 x 2
##    `Candy Type`          Meh
##    <chr>               <int>
##  1 Lollipops             931
##  2 Hard Candy            907
##  3 Bonkers (the candy)   857
##  4 Minibags of chips     759
##  5 100 Grand Bar         755
##  6 Chiclets              744
##  7 LaffyTaffy            729
##  8 Tic Tacs              728
##  9 Hershey's Kisses      726
## 10 Now'n'Laters          725
## #  with 69 more rows

Lastly, the candies which received the most non-responses:

candy2 %>%
  filter(is.na(Rating)) %>%
  group_by(`Candy Type`) %>%
  summarize(count = n()) %>%
  arrange(desc(count))

## # A tibble: 79 x 2
##    `Candy Type`                               count
##    <chr>                                      <int>
##  1 JoyJoy (Mit Iodine!)                        1026
##  2 Maynards                                    1024
##  3 Reggie Jackson Bar                          1014
##  4 Sweetums (a friend to diabetes)             1002
##  5 Bonkers (the candy)                          992
##  6 Black Jacks                                  958
##  7 Chick-o-Sticks (we dont know what that is)   946
##  8 Kinder Happy Hippo                           945
##  9 Take 5                                       917
## 10 Smarties (Commonwealth)                      901
## #  with 69 more rows
…
The age groups vary in size, so a new variable is made based on the average score given per respondent in a given group. Votes of 0 and NA are equivalent for this calculation, as only dislikes and likes influence the score variable. Since 0 signifies indifference, it seems reasonable to equate non-answers to indifference (or no opinion) on a given candy.

Score_per_Agegroup <- candy2 %>%
  group_by(AgeRange,`Candy Type`) %>%
  filter(!is.na(Rating) & !is.na(AgeRange)) %>%
  summarize(Score = sum(Rating))

(Score_over_Responses <- left_join(Score_per_Agegroup, Responses_per_Agegroup, by="AgeRange") %>%
  mutate(AvgScore = Score/Responses) %>%
  arrange(desc(AvgScore)))

## # A tibble: 790 x 5
## # Groups:   AgeRange [10]
##    AgeRange `Candy Type`                 Score Responses AvgScore
##    <fct>    <chr>                        <dbl>     <int>    <dbl>
##  1 45-50    Reeses                         218       329    0.663
##  2 50-55    Kit Kat                        139       216    0.644
##  3 50-55    Reeses                         137       216    0.634
##  4 50-55    Tolberone something or other   137       216    0.634
##  5 45-50    Kit Kat                        208       329    0.632
##  6 45-50    Twix                           207       329    0.629
##  7 35-40    Twix                           256       411    0.623
##  8 40-45    Reeses                         237       390    0.608
##  9 Under 20 Kit Kat                         49        81    0.605
## 10 55-60    Kit Kat                         98       162    0.605
## #  with 780 more rows

Finally, to get an idea for how preferences differ among ages, we look at the range of average scores for each candy:

(Score_Range <- Score_over_Responses %>%
  group_by(`Candy Type`) %>%
  summarize(ScoreRange = max(AvgScore)-min(AvgScore)) %>%
  arrange(desc(ScoreRange)))

## # A tibble: 79 x 2
##    `Candy Type`                                    ScoreRange
##    <chr>                                                <dbl>
##  1 Sourpatch Kids                                       0.827
##  2 Nerds                                                0.596
##  3 Peeps                                                0.559
##  4 Whatchamacallit Bars                                 0.529
##  5 Lollipops                                            0.509
##  6 Bottle Caps                                          0.481
##  7 Sandwich-sized bags filled with BooBerry Crunch      0.458
##  8 Kinder Happy Hippo                                   0.455
##  9 Jolly Ranchers (good flavor)                         0.452
## 10 Tic Tacs                                             0.426
## #  with 69 more rows
…
Distaste for Sourpatch Kids increases with age: the youngest age groups like them overall, as we increase through the age groups, respondents begin to dislike them overall with increasing regularity.

The least divisive candies:

Score_Range %>% arrange(ScoreRange)

## # A tibble: 79 x 2
##    `Candy Type`                               ScoreRange
##    <chr>                                           <dbl>
##  1 Peanut M&Ms                                     0.102
##  2 Smarties (Commonwealth)                         0.120
##  3 Mary Janes                                      0.138
##  4 Those odd marshmallow circus peanut things      0.144
##  5 Nestle Crunch                                   0.160
##  6 LemonHeads                                      0.160
##  7 Junior Mints                                    0.162
##  8 Milk Duds                                       0.163
##  9 Regular M&Ms                                    0.165
## 10 Kit Kat                                         0.166
## #  with 69 more rows
…
Overall the top candy choices of men and women are highly similar. 4 of the top 5 candies for men and women are identical. There is some preference from women to eat candied bars, but overall the difference between men and womens tastes in candy is not significant when viewing their favorite candies. This observation leads to a different question. If men and women like the same candies, do they also dislike the same candies.

lf_m <- candy2 %>%
  filter(Rating == -1, GENDER == 'Male') %>%
  group_by(`Candy Type`) %>%
  summarize(Dislike = n()) %>%
  arrange(desc(Dislike))

lf_m

## # A tibble: 79 x 2
##    `Candy Type`                                    Dislike
##    <chr>                                             <int>
##  1 Gum from baseball cards                             883
##  2 Those odd marshmallow circus peanut things          731
##  3 Box'o'Raisins                                       704
##  4 Spotted Dick                                        684
##  5 Sandwich-sized bags filled with BooBerry Crunch     675
##  6 Peeps                                               667
##  7 Mary Janes                                          649
##  8 Jolly Rancher (bad flavor)                          619
##  9 JoyJoy (Mit Iodine!)                                566
## 10 Trail Mix                                           516
## #  with 69 more rows

lf_w <- candy2 %>%
  filter(Rating == -1, GENDER == 'Female') %>%
  group_by(`Candy Type`) %>%
  summarize(Dislike = n()) %>%
  arrange(desc(Dislike))

lf_w

## # A tibble: 79 x 2
##    `Candy Type`                                    Dislike
##    <chr>                                             <int>
##  1 Gum from baseball cards                             503
##  2 Those odd marshmallow circus peanut things          452
##  3 Box'o'Raisins                                       416
##  4 Sandwich-sized bags filled with BooBerry Crunch     412
##  5 Spotted Dick                                        399
##  6 Jolly Rancher (bad flavor)                          382
##  7 Mary Janes                                          369
##  8 Peeps                                               366
##  9 JoyJoy (Mit Iodine!)                                343
## 10 Licorice (yes black)                                340
## #  with 69 more rows
…
